<?xml version="1.0" encoding="utf-8"?>
<!-- Generator: Adobe Illustrator 22.0.1, SVG Export Plug-In . SVG Version: 6.00 Build 0)  -->
<svg version="1.1" id="Final_HIGHT" xmlns="http://www.w3.org/2000/svg" xmlns:xlink="http://www.w3.org/1999/xlink" x="0px"
	 y="0px" viewBox="0 0 1018 240" style="enable-background:new 0 0 1018 240;" xml:space="preserve">
<style type="text/css">
	.st0{fill:#009EFF;}
	.st1{fill:#FF6600;}
	.st2{fill:#33BBFF;}
	.st3{fill:#FF8533;}
</style>
<g>
	<g>
		<path class="st0" d="M0.1,154.4c0,68.2,38.4,84.7,102.8,84.7h114.5c64.3,0,103.7-16.5,103.7-84.7v-37l-75.1,5.9v8.9
			c0,33.8-6.5,47.3-40.2,47.3h-91.3c-29.5,0-39.4-10.4-41.4-35.6L0.1,154.4z"/>
		<path class="st0" d="M73,143.9"/>
		<path class="st0" d="M523.2,103l-47,133h-82l-40.3-124.9l64.3-3.9l19.8,67.1l23.8-68.2L523.2,103z M597.7,100l26,74.3l22.1-76.2
			l66.9-0.9l-45.2,138.8h-82l-48.1-134.5L597.7,100z"/>
	</g>
	<path class="st1" d="M1013.3,99.8c-5,41.6-25.5,50.2-94.4,53.9l-73.6,3.9c-29.9,1.6-34.4,7.4-34.4,28.3h207.1v50.2H745.2V157
		c0-28.6,18.6-47.6,64.6-50.8l81.7-5.1c17.5-1.1,29.5-1.9,37.7-3.4L1013.3,99.8z"/>
	<g>
		<g>
			<path class="st2" d="M196.8,0.9h-93.9C38.5,0.9,0.1,16.8,0.1,84.9v69.5c0,0.5,0,1.1,0.1,1.6c23.9-3.8,47.7-7.4,73-10.9
				c-0.3-3.9-0.6-8.2-0.6-12.9v-25.1c0-28.9,8.1-46.6,45.7-46.6h83.6c5.2,0,10.2,0.3,14.2,1L196.8,0.9z"/>
			<path class="st2" d="M255.6,116.7l-9.6,6.5v1.8c25.9-2.3,49.2-4.5,75.1-6.5V84.9c0-4.1-0.2-8-0.4-11.8L255.6,116.7z"/>
		</g>
		<g>
			<path class="st2" d="M711.7,99.7L743,3.5h-69.8l-28.3,97.8C667,100.7,689.3,100.1,711.7,99.7z"/>
			<path class="st2" d="M538.3,104.5c19.6-0.9,40.3-1.4,60.2-2.1L563.4,3.5h-66.2l-36.3,105c20.1-1.1,41.1-2.6,61.7-3.6l7.5-23.8
				L538.3,104.5z"/>
			<path class="st2" d="M419.2,111.4L388.4,3.5h-69.8l36.9,112.4C376.7,114.3,397.4,112.8,419.2,111.4z"/>
		</g>
	</g>
	<path class="st3" d="M812.8,79.5c0-24.1,9.3-29.3,39.6-29.3h47.3c45.7,0,47.6,4.5,47.6,23.5c0,18.3-2.3,22.7-29.9,25.3
		c32.3,0.4,64.2,1.1,95.8,2c1.2-9,1.6-19.3,1.6-31.7c0-48.6-17.4-68.3-84.2-68.3h-93.9c-64.3,0-91.1,15.2-91.1,61.2v26.8h67.3
		L812.8,79.5L812.8,79.5z"/>
	<polygon class="st1" points="315.6,55.1 298,1 213.4,1 246.5,103.1 	"/>
</g>
</svg>
